%YAML 1.1
%TAG !u! tag:unity3d.com,2011:
--- !u!21 &2100000
Material:
  serializedVersion: 6
  m_ObjectHideFlags: 0
  m_PrefabParentObject: {fileID: 0}
  m_PrefabInternal: {fileID: 0}
  m_Name: helmetplaceholder
  m_Shader: {fileID: 4800000, guid: 265c46609d11da9e11009f3944295342, type: 3}
  m_ShaderKeywords: 
  m_LightmapFlags: 5
  m_CustomRenderQueue: -1
  stringTagMap: {}
  m_SavedProperties:
    serializedVersion: 2
    m_TexEnvs:
      data:
        first:
          name: _MainTex
        second:
          m_Texture: {fileID: 2800000, guid: 1c172769c37bd4aa08d96190a5d1e228, type: 3}
          m_Scale: {x: 1, y: 1}
          m_Offset: {x: 0, y: 0}
      data:
        first:
          name: _FresnelControl
        second:
          m_Texture: {fileID: 2800000, guid: cc90a732ad112a541100162a44295342, type: 3}
          m_Scale: {x: 1, y: 1}
          m_Offset: {x: 0, y: 0}
      data:
        first:
          name: _ReflectionMap
        second:
          m_Texture: {fileID: 8900000, guid: e7fd60089d11ba9e11009f3944295342, type: 2}
          m_Scale: {x: 1, y: 1}
          m_Offset: {x: 0, y: 0}
    m_Floats:
      data:
        first:
          name: _Shininess
        second: 64
      data:
        first:
          name: _FresnelTransp
        second: 0.5
    m_Colors:
      data:
        first:
          name: _Color
        second: {r: 0.8, g: 0.8, b: 0.8, a: 1}
      data:
        first:
          name: _MainTex_ST
        second: {r: 1, g: 1, b: 0, a: 0}
      data:
        first:
          name: _Ambient
        second: {r: 0.9, g: 0, b: 0, a: 0}
      data:
        first:
          name: _Specular
        second: {r: 0.9, g: 0.9, b: 1, a: 1}
      data:
        first:
          name: _ReflectionMap_ST
        second: {r: 1, g: 1, b: 0, a: 0}
      data:
        first:
          name: _FresnelControl_ST
        second: {r: 1, g: 1, b: 0, a: 0}
--- !u!1002 &2100001
EditorExtensionImpl:
  serializedVersion: 6
